{
    "pairings": [
        {
            "meats": ["Chicken", "Duck", "Turkey"],
            "wine": "Off Dry White Wine",
            "varieties": [
                "Chardonnay",
                "Pinot Gris",
                "Sauvignon",
                "Blanc",
                "Semillon"
            ]
        },
        {
            "meats": ["Beef", "Pork", "Pepperoni", "Sausage", "Steak"],
            "wine": "Medium Full-Bodied Red Wine",
            "varieties": ["Grenache", "Malbec", "Merlot", "Shiraz", "Zinfandel"]
        },
        {
            "meats": ["Lamb"],
            "wine": "Off-Dry Light Red Wine",
            "varieties": [
                "Burgundy",
                "Cabernet Franc",
                "Sangiovese",
                "Valpocella"
            ]
        },
        {
            "meats": ["Fish", "Seafood", "Tuna", "Prawn", "Salmon", "Crab"],
            "wine": "Medium Dry White Wine",
            "varieties": ["Gewurztraminer", "Muscat", "Riesling"]
        },
        {
            "meats": ["Meat-Free", "Veggie", "Vegetarian"],
            "wine": "Sweet Rosé",
            "varieties": ["White Zinfandel", "White Merlot", "Pink Moscato"]
        }
    ]
}
